%YAML 1.1
%TAG !u! tag:unity3d.com,2011:
--- !u!78 &1
TagManager:
  serializedVersion: 2
  tags:
  - GameProgress
  - AttackButton
  - Character
  - Overlay
  - PlayerDataField
  - SaveScoreButton
  - WebConnection
  - DeathMenu
  - ScoreDisplay
  - TableHighScores
  - ObjectFactory
  - AudioBackground
  - EquippedWeaponDisplay
  - Building
  - AlertMessage
  layers:
  - Default
  - TransparentFX
  - Ignore Raycast
  - 
  - Water
  - UI
  - 
  - 
  - Character
  - Game elements
  - 
  - 
  - 
  - 
  - 
  - 
  - 
  - 
  - 
  - 
  - 
  - 
  - 
  - 
  - 
  - 
  - 
  - 
  - 
  - 
  - 
  - 
  m_SortingLayers:
  - name: Default
    uniqueID: 0
    locked: 0
  - name: UI
    uniqueID: 4091897959
    locked: 0
